{
  "name": "symbaroum5e",
  "title": "Ruins of Symbaroum",
  "description": "Ruins of Symbaroum tweaks to the DND5E System.",
  "version": "0.1.0",
  "compatibleCoreVersion": "0.7.8",
  "minimumCoreVersion": "0.6.2",
  "esmodules": [ "symbaroum5e.js" ],
  "languages": [
    {
      "lang": "en",
      "name": "English",
      "path": "lang/en.json"
    }],
  "socket": false,
  "url": "https://gitlab.com/conaldi/symbaroum5e-module/",
  "author": "dirusulixes",
  "manifest": "https://gitlab.com/conaldi/symbaroum5e-module/-/raw/master/module.json",
  "download": "https://gitlab.com/conaldi/symbaroum5e-module/-/archive/master/aime-module-master.zip"
}
